{
  
  "version": 2,
  "builds": [
    {
      "src": "src/main.ts", 
      "use": "@vercel/node"
    }
  ],
  
  "routes": [
    {
      "src": "/(.*)",
      "dest": "src/main.ts",
      "methods": ["GET", "HEAD", "OPTIONS", "POST", "PUT", "DELETE"]
    }
  ]
}